%YAML 1.1
%TAG !u! tag:unity3d.com,2011:
--- !u!1001 &7920543232165667523
PrefabInstance:
  m_ObjectHideFlags: 0
  serializedVersion: 2
  m_Modification:
    m_TransformParent: {fileID: 0}
    m_Modifications:
    - target: {fileID: 3278199032358586665, guid: 4eab9d6e999aae642a463ca8e1e30ddc, type: 3}
      propertyPath: m_Sprite
      value: 
      objectReference: {fileID: 21300000, guid: c87294918db147f438a9f7bc16476b99, type: 3}
    - target: {fileID: 3278199033519416721, guid: 4eab9d6e999aae642a463ca8e1e30ddc, type: 3}
      propertyPath: m_Name
      value: Gunner6X
      objectReference: {fileID: 0}
    - target: {fileID: 3278199033519416725, guid: 4eab9d6e999aae642a463ca8e1e30ddc, type: 3}
      propertyPath: m_Pivot.x
      value: 0
      objectReference: {fileID: 0}
    - target: {fileID: 3278199033519416725, guid: 4eab9d6e999aae642a463ca8e1e30ddc, type: 3}
      propertyPath: m_Pivot.y
      value: 0
      objectReference: {fileID: 0}
    - target: {fileID: 3278199033519416725, guid: 4eab9d6e999aae642a463ca8e1e30ddc, type: 3}
      propertyPath: m_RootOrder
      value: 0
      objectReference: {fileID: 0}
    - target: {fileID: 3278199033519416725, guid: 4eab9d6e999aae642a463ca8e1e30ddc, type: 3}
      propertyPath: m_AnchorMax.x
      value: 0
      objectReference: {fileID: 0}
    - target: {fileID: 3278199033519416725, guid: 4eab9d6e999aae642a463ca8e1e30ddc, type: 3}
      propertyPath: m_AnchorMax.y
      value: 0
      objectReference: {fileID: 0}
    - target: {fileID: 3278199033519416725, guid: 4eab9d6e999aae642a463ca8e1e30ddc, type: 3}
      propertyPath: m_AnchorMin.x
      value: 0
      objectReference: {fileID: 0}
    - target: {fileID: 3278199033519416725, guid: 4eab9d6e999aae642a463ca8e1e30ddc, type: 3}
      propertyPath: m_AnchorMin.y
      value: 0
      objectReference: {fileID: 0}
    - target: {fileID: 3278199033519416725, guid: 4eab9d6e999aae642a463ca8e1e30ddc, type: 3}
      propertyPath: m_SizeDelta.x
      value: 0
      objectReference: {fileID: 0}
    - target: {fileID: 3278199033519416725, guid: 4eab9d6e999aae642a463ca8e1e30ddc, type: 3}
      propertyPath: m_SizeDelta.y
      value: 0
      objectReference: {fileID: 0}
    - target: {fileID: 3278199033519416725, guid: 4eab9d6e999aae642a463ca8e1e30ddc, type: 3}
      propertyPath: m_LocalPosition.x
      value: 0
      objectReference: {fileID: 0}
    - target: {fileID: 3278199033519416725, guid: 4eab9d6e999aae642a463ca8e1e30ddc, type: 3}
      propertyPath: m_LocalPosition.y
      value: 0
      objectReference: {fileID: 0}
    - target: {fileID: 3278199033519416725, guid: 4eab9d6e999aae642a463ca8e1e30ddc, type: 3}
      propertyPath: m_LocalPosition.z
      value: 0
      objectReference: {fileID: 0}
    - target: {fileID: 3278199033519416725, guid: 4eab9d6e999aae642a463ca8e1e30ddc, type: 3}
      propertyPath: m_LocalRotation.w
      value: 1
      objectReference: {fileID: 0}
    - target: {fileID: 3278199033519416725, guid: 4eab9d6e999aae642a463ca8e1e30ddc, type: 3}
      propertyPath: m_LocalRotation.x
      value: 0
      objectReference: {fileID: 0}
    - target: {fileID: 3278199033519416725, guid: 4eab9d6e999aae642a463ca8e1e30ddc, type: 3}
      propertyPath: m_LocalRotation.y
      value: 0
      objectReference: {fileID: 0}
    - target: {fileID: 3278199033519416725, guid: 4eab9d6e999aae642a463ca8e1e30ddc, type: 3}
      propertyPath: m_LocalRotation.z
      value: 0
      objectReference: {fileID: 0}
    - target: {fileID: 3278199033519416725, guid: 4eab9d6e999aae642a463ca8e1e30ddc, type: 3}
      propertyPath: m_AnchoredPosition.x
      value: 0
      objectReference: {fileID: 0}
    - target: {fileID: 3278199033519416725, guid: 4eab9d6e999aae642a463ca8e1e30ddc, type: 3}
      propertyPath: m_AnchoredPosition.y
      value: 0
      objectReference: {fileID: 0}
    - target: {fileID: 3278199033519416725, guid: 4eab9d6e999aae642a463ca8e1e30ddc, type: 3}
      propertyPath: m_LocalEulerAnglesHint.x
      value: 0
      objectReference: {fileID: 0}
    - target: {fileID: 3278199033519416725, guid: 4eab9d6e999aae642a463ca8e1e30ddc, type: 3}
      propertyPath: m_LocalEulerAnglesHint.y
      value: 0
      objectReference: {fileID: 0}
    - target: {fileID: 3278199033519416725, guid: 4eab9d6e999aae642a463ca8e1e30ddc, type: 3}
      propertyPath: m_LocalEulerAnglesHint.z
      value: 0
      objectReference: {fileID: 0}
    - target: {fileID: 4928905394857902733, guid: 4eab9d6e999aae642a463ca8e1e30ddc, type: 3}
      propertyPath: m_Gain
      value: 50
      objectReference: {fileID: 0}
    - target: {fileID: 6158237946388913931, guid: 4eab9d6e999aae642a463ca8e1e30ddc, type: 3}
      propertyPath: m_Gain
      value: 200
      objectReference: {fileID: 0}
    m_RemovedComponents: []
  m_SourcePrefab: {fileID: 100100000, guid: 4eab9d6e999aae642a463ca8e1e30ddc, type: 3}
