<?xml version="1.0" encoding="UTF-8" standalone="no"?>
<svg
   xmlns:dc="http://purl.org/dc/elements/1.1/"
   xmlns:cc="http://creativecommons.org/ns#"
   xmlns:rdf="http://www.w3.org/1999/02/22-rdf-syntax-ns#"
   xmlns:svg="http://www.w3.org/2000/svg"
   xmlns="http://www.w3.org/2000/svg"
   xmlns:sodipodi="http://sodipodi.sourceforge.net/DTD/sodipodi-0.dtd"
   xmlns:inkscape="http://www.inkscape.org/namespaces/inkscape"
   width="1000"
   height="1000"
   viewBox="0 0 264.58333 264.58334"
   version="1.1"
   id="svg5"
   inkscape:version="1.0.1 (3bc2e813f5, 2020-09-07)"
   sodipodi:docname="driver.svg"
   inkscape:export-filename="P:\Unity\MI455\CinemachineTest\Assets\Sprites\Sights\driver.png"
   inkscape:export-xdpi="96"
   inkscape:export-ydpi="96">
  <metadata
     id="metadata85">
    <rdf:RDF>
      <cc:Work
         rdf:about="">
        <dc:format>image/svg+xml</dc:format>
        <dc:type
           rdf:resource="http://purl.org/dc/dcmitype/StillImage" />
      </cc:Work>
    </rdf:RDF>
  </metadata>
  <sodipodi:namedview
     id="namedview7"
     pagecolor="#505050"
     bordercolor="#ffffff"
     borderopacity="1"
     inkscape:pageshadow="0"
     inkscape:pageopacity="0"
     inkscape:pagecheckerboard="1"
     inkscape:document-units="mm"
     showgrid="false"
     units="px"
     inkscape:zoom="0.75872558"
     inkscape:cx="414.54982"
     inkscape:cy="426.81053"
     inkscape:window-width="1857"
     inkscape:window-height="1057"
     inkscape:window-x="-8"
     inkscape:window-y="-8"
     inkscape:window-maximized="1"
     inkscape:current-layer="layer1"
     inkscape:document-rotation="0" />
  <defs
     id="defs2" />
  <g
     inkscape:label="Layer 1"
     inkscape:groupmode="layer"
     id="layer1">
    <g
       id="g45816"
       transform="translate(-111.81284,-34.745561)"
       style="display:none">
      <path
         id="rect44733-2"
         style="fill:#4d4d4d;fill-rule:evenodd;stroke-width:1.05833;stroke-linecap:round;stroke-linejoin:round;stroke-dasharray:2.11667, 1.05833"
         d="M 111.81283,34.745555 H 376.39618 V 299.3289 H 111.81283 Z" />
      <path
         id="path44593-5"
         style="fill:#f8f8f8;fill-rule:evenodd;stroke-width:1.05006;stroke-linecap:round;stroke-linejoin:round;stroke-dasharray:2.10014, 1.05006"
         d="m 323.47951,167.03723 a 79.375,79.375 0 0 1 -79.375,79.375 79.375,79.375 0 0 1 -79.375,-79.375 79.375,79.375 0 0 1 79.375,-79.374998 79.375,79.375 0 0 1 79.375,79.374998 z" />
    </g>
    <path
       id="rect912"
       style="opacity:0.998;fill:#4d4d4d;stroke:#03ce00;stroke-width:0.130704;stroke-linecap:square;fill-opacity:1;fill-rule:evenodd"
       d="m 43.7216,112.51327 h 177.14014 c 2.19868,0 3.96875,1.77006 3.96875,3.96875 v 31.61929 c 0,2.19869 -1.77007,3.96875 -3.96875,3.96875 H 43.7216 c -2.198688,0 -3.96875,-1.77006 -3.96875,-3.96875 v -31.61929 c 0,-2.19869 1.770062,-3.96875 3.96875,-3.96875 z M 0.13669309,0.13669309 H 264.44663 V 264.44663 H 0.13669309 Z" />
  </g>
</svg>
